G04 DipTrace 3.2.0.1*
G04 BottomSilk.gbr*
%MOMM*%
G04 #@! TF.FileFunction,Legend,Bot*
G04 #@! TF.Part,Single*
%ADD71C,0.39216*%
%ADD72C,0.31373*%
%FSLAX35Y35*%
G04*
G71*
G90*
G75*
G01*
G04 BotSilk*
%LPD*%
X4630238Y7726737D2*
D71*
Y7981957D1*
X4727384Y7726737D1*
X4824531Y7981957D1*
Y7726737D1*
X4406088Y7896883D2*
Y7726737D1*
Y7860383D2*
X4430234Y7884810D1*
X4454661Y7896883D1*
X4490880D1*
X4515307Y7884810D1*
X4539453Y7860383D1*
X4551807Y7823883D1*
Y7799737D1*
X4539453Y7763237D1*
X4515307Y7739091D1*
X4490880Y7726737D1*
X4454661D1*
X4430234Y7739091D1*
X4406088Y7763237D1*
X4327656Y7981957D2*
Y7726737D1*
X4206083Y7896883D2*
X4327656Y7775310D1*
X4279083Y7823883D2*
X4194010Y7726737D1*
X4115579Y7823883D2*
X3969859D1*
Y7848310D1*
X3981933Y7872737D1*
X3994006Y7884810D1*
X4018433Y7896883D1*
X4054933D1*
X4079079Y7884810D1*
X4103506Y7860383D1*
X4115579Y7823883D1*
Y7799737D1*
X4103506Y7763237D1*
X4079079Y7739091D1*
X4054933Y7726737D1*
X4018433D1*
X3994006Y7739091D1*
X3969859Y7763237D1*
X3891428Y7896883D2*
Y7726737D1*
Y7823883D2*
X3879074Y7860383D1*
X3854928Y7884810D1*
X3830501Y7896883D1*
X3794001D1*
X5405505Y7398487D2*
D72*
X5424822Y7418028D1*
X5454022Y7427687D1*
X5492881D1*
X5522081Y7418028D1*
X5541622Y7398487D1*
Y7379170D1*
X5531739Y7359628D1*
X5522081Y7349970D1*
X5502764Y7340311D1*
X5444364Y7320770D1*
X5424822Y7311111D1*
X5415164Y7301228D1*
X5405505Y7281911D1*
Y7252711D1*
X5424822Y7233394D1*
X5454022Y7223511D1*
X5492881D1*
X5522081Y7233394D1*
X5541622Y7252711D1*
X5216526Y7427687D2*
X5342760D1*
Y7223511D1*
X5216526D1*
X5342760Y7330428D2*
X5265043D1*
X5095381Y7427687D2*
X5114923Y7418028D1*
X5134240Y7398487D1*
X5144123Y7379170D1*
X5153781Y7349970D1*
Y7301228D1*
X5144123Y7272253D1*
X5134240Y7252711D1*
X5114923Y7233394D1*
X5095381Y7223511D1*
X5056523D1*
X5037206Y7233394D1*
X5017664Y7252711D1*
X5008006Y7272253D1*
X4998348Y7301228D1*
Y7349970D1*
X5008006Y7379170D1*
X5017664Y7398487D1*
X5037206Y7418028D1*
X5056523Y7427687D1*
X5095381D1*
X4935602D2*
Y7223511D1*
X4819027D1*
X4558768Y7427687D2*
X4481051Y7330428D1*
Y7223511D1*
X4403334Y7427687D2*
X4481051Y7330428D1*
X4282189Y7427687D2*
X4301730Y7418028D1*
X4321047Y7398487D1*
X4330930Y7379170D1*
X4340589Y7349970D1*
Y7301228D1*
X4330930Y7272253D1*
X4321047Y7252711D1*
X4301730Y7233394D1*
X4282189Y7223511D1*
X4243330D1*
X4224013Y7233394D1*
X4204472Y7252711D1*
X4194813Y7272253D1*
X4185155Y7301228D1*
Y7349970D1*
X4194813Y7379170D1*
X4204472Y7398487D1*
X4224013Y7418028D1*
X4243330Y7427687D1*
X4282189D1*
X4064010D2*
X4083551Y7418028D1*
X4102868Y7398487D1*
X4112751Y7379170D1*
X4122410Y7349970D1*
Y7301228D1*
X4112751Y7272253D1*
X4102868Y7252711D1*
X4083551Y7233394D1*
X4064010Y7223511D1*
X4025151D1*
X4005834Y7233394D1*
X3986293Y7252711D1*
X3976634Y7272253D1*
X3966976Y7301228D1*
Y7349970D1*
X3976634Y7379170D1*
X3986293Y7398487D1*
X4005834Y7418028D1*
X4025151Y7427687D1*
X4064010D1*
X3768114D2*
Y7223511D1*
X3904231Y7427687D1*
Y7223511D1*
X3371737Y7398487D2*
X3391054Y7418028D1*
X3420254Y7427687D1*
X3459113D1*
X3488313Y7418028D1*
X3507854Y7398487D1*
Y7379170D1*
X3497971Y7359628D1*
X3488313Y7349970D1*
X3468996Y7340311D1*
X3410596Y7320770D1*
X3391054Y7311111D1*
X3381396Y7301228D1*
X3371737Y7281911D1*
Y7252711D1*
X3391054Y7233394D1*
X3420254Y7223511D1*
X3459113D1*
X3488313Y7233394D1*
X3507854Y7252711D1*
X3182759Y7427687D2*
X3308992D1*
Y7223511D1*
X3182759D1*
X3308992Y7330428D2*
X3231275D1*
X3061613Y7427687D2*
X3081155Y7418028D1*
X3100472Y7398487D1*
X3110355Y7379170D1*
X3120013Y7349970D1*
Y7301228D1*
X3110355Y7272253D1*
X3100472Y7252711D1*
X3081155Y7233394D1*
X3061613Y7223511D1*
X3022755D1*
X3003438Y7233394D1*
X2983897Y7252711D1*
X2974238Y7272253D1*
X2964580Y7301228D1*
Y7349970D1*
X2974238Y7379170D1*
X2983897Y7398487D1*
X3003438Y7418028D1*
X3022755Y7427687D1*
X3061613D1*
X5372201Y6842511D2*
X5450142Y7046687D1*
X5527859Y6842511D1*
X5498659Y6910570D2*
X5401401D1*
X5309456Y7046687D2*
Y6842511D1*
X5173339Y7046687D2*
Y6842511D1*
X5309456Y6949428D2*
X5173339D1*
X4974477Y7046687D2*
Y6842511D1*
X5110594Y7046687D1*
Y6842511D1*
X4714217Y7046687D2*
Y6842511D1*
X4578100Y7046687D2*
Y6842511D1*
X4714217Y6949428D2*
X4578100D1*
X4359697Y6842511D2*
X4437638Y7046687D1*
X4515355Y6842511D1*
X4486155Y6910570D2*
X4388897D1*
X3944004Y6842511D2*
Y7046687D1*
X4021721Y6842511D1*
X4099437Y7046687D1*
Y6842511D1*
X3881259Y7046687D2*
Y6842511D1*
X3663080D2*
Y7046687D1*
X3740797Y6842511D1*
X3818513Y7046687D1*
Y6842511D1*
X5490517Y6665687D2*
Y6461511D1*
X5354400Y6665687D2*
X5490517Y6529570D1*
X5442000Y6578311D2*
X5354400Y6461511D1*
X5291655Y6665687D2*
Y6461511D1*
X5073476D2*
Y6665687D1*
X5151193Y6461511D1*
X5228910Y6665687D1*
Y6461511D1*
X4813217Y6665687D2*
X4735500Y6568428D1*
Y6461511D1*
X4657783Y6665687D2*
X4735500Y6568428D1*
X4536638Y6665687D2*
X4556179Y6656028D1*
X4575496Y6636487D1*
X4585379Y6617170D1*
X4595038Y6587970D1*
Y6539228D1*
X4585379Y6510253D1*
X4575496Y6490711D1*
X4556179Y6471394D1*
X4536638Y6461511D1*
X4497779D1*
X4478463Y6471394D1*
X4458921Y6490711D1*
X4449263Y6510253D1*
X4439604Y6539228D1*
Y6587970D1*
X4449263Y6617170D1*
X4458921Y6636487D1*
X4478463Y6656028D1*
X4497779Y6665687D1*
X4536638D1*
X4376859D2*
Y6519911D1*
X4367200Y6490711D1*
X4347659Y6471394D1*
X4318459Y6461511D1*
X4299142D1*
X4269942Y6471394D1*
X4250400Y6490711D1*
X4240742Y6519911D1*
Y6665687D1*
X4041880D2*
Y6461511D1*
X4177997Y6665687D1*
Y6461511D1*
X3833360Y6617170D2*
X3843018Y6636487D1*
X3862560Y6656028D1*
X3881876Y6665687D1*
X3920735D1*
X3940276Y6656028D1*
X3959593Y6636487D1*
X3969476Y6617170D1*
X3979135Y6587970D1*
Y6539228D1*
X3969476Y6510253D1*
X3959593Y6490711D1*
X3940276Y6471394D1*
X3920735Y6461511D1*
X3881876D1*
X3862560Y6471394D1*
X3843018Y6490711D1*
X3833360Y6510253D1*
Y6539228D1*
X3881876D1*
X3505042Y6665687D2*
Y6461511D1*
X3573100Y6665687D2*
X3436983D1*
X3218580Y6461511D2*
X3296521Y6665687D1*
X3374238Y6461511D1*
X3345038Y6529570D2*
X3247780D1*
M02*
